{
    "listeners": {
        "*:9000": {
            "pass": "routes"
        }
    },
    "applications": {
        "demo": {
            "type": "php",
            "root": "/www/root/html",
            "index": "index.php"
        }
    },
    "routes": [
        {
            "match": {
                "uri": [
                    "*.css",
                    "*.html",
                    "*.jpeg",
                    "*.jpg",
                    "*.png",
                    "*.pdf"
                ]
            },
            "action": {
                "share": "/www/root/html/static"
            }
        },
        {
            "action": {
                "pass": "applications/demo"
            }
        }
    ]
}